/* XPM */
static char * top_left_active_xpm[] = {
"2 26 4 1",
" 	c None",
".	c #bcbcbc",
"+	c #bcbcbc",
"@	c #555555",
" .",
".+",
".@",
".@",
".@",
".@",
".@",
".@",
".@",
".@",
".@",
".@",
".@",
".@",
".@",
".@",
".@",
".@",
".@",
".@",
".@",
".@",
".@",
".@",
".@",
".@"};
